Place,Name,Sex,Equipment,Division,BodyweightKg,WeightClassKg,Squat1Kg,Squat2Kg,Squat3Kg,Best3SquatKg,Bench1Kg,Bench2Kg,Bench3Kg,Best3BenchKg,Deadlift1Kg,Deadlift2Kg,Deadlift3Kg,Best3DeadliftKg,TotalKg,Event,BirthDate
1,Sofija Ječmenica,F,Raw,J,46.5,47,-62.5,62.5,-68,62.5,37.5,-40,-40,37.5,85,95,-111,95,195,SBD,1999-08-16
1,Milica Vučković,F,Raw,J,53.9,57,90,95,100,100,45,50,52.5,52.5,100,110,-115,110,262.5,SBD,1999-03-24
2,Dunja Janković,F,Raw,J,56.4,57,77.5,82.5,-85,82.5,55,58,-60.5,58,100,110,117.5,117.5,258,SBD,2001-11-12
3,Tijana Trifunović,F,Raw,J,55.3,57,-85,85,-90,85,35,40,-42.5,40,100,110,115,115,240,SBD,2003-11-18
1,Anita Šaponjić,F,Raw,J,61.2,63,70,75,80,80,-37.5,37.5,40,40,80,87.5,92.5,92.5,212.5,SBD,2002-12-10
1,Katarina Stojanović,F,Raw,J,69,69,90,100,105,105,57.5,62.5,67.5,67.5,115,125,132.5,132.5,305,SBD,2002-11-24
2,Tamara Lančuški,F,Raw,J,64.5,69,90,-100,100,100,55,-60,60,60,110,120,125,125,285,SBD,2000-09-06
3,Nina Nemet,F,Raw,J,67.1,69,70,72.5,90,90,37.5,42.5,47.5,47.5,95,105,110,110,247.5,SBD,2001-11-12
4,Vladana Babić,F,Raw,J,64.4,69,75,80,-85,80,45,47.5,50,50,100,110,-117.5,110,240,SBD,2003-03-28
1,Nadja Ramić,F,Raw,J,73,76,120,-125,125,125,60,62.5,65,65,135,140,,140,330,SBD,1999-06-20
2,Aleksandra Mladenovic,F,Raw,J,75.4,76,-95,95,105,105,47.5,50,55,55,110,120,125,125,285,SBD,2001-03-24
3,Sonja Milošević,F,Raw,J,76,76,105,110,-115,110,50,55,-60,55,110,117.5,120,120,285,SBD,2000-06-29
4,Marija Petrovic,F,Raw,J,75.8,76,-75,75,-82.5,75,52.5,57.5,62.5,62.5,95,105,112.5,112.5,250,SBD,2002-10-09
5,Tijana Milanović,F,Raw,J,71.5,76,-75,75,-77.5,75,40,45,-47.5,45,100,105,110,110,230,SBD,2001-08-04
1,Danijela Kršanin,F,Raw,M1,53.2,57,55,,,55,55,-60,,55,60,,,60,170,SBD,1978-03-23
1,Dragana Kulaš,F,Raw,M1,67.9,69,-110,-110,110,110,80,85,-90,85,120,130,-135,130,325,SBD,1978-07-20
2,Mirjana Risic,F,Raw,M1,69,69,95,100,107.5,107.5,55,-60,60,60,95,110,117.5,117.5,285,SBD,1981-02-16
3,Marija Rakić,F,Raw,M1,66.6,69,50,-60,-60,50,40,45,-47.5,45,70,85,-95,85,180,SBD,1975-05-29
1,Tanja Kalinić,F,Raw,M1,111,84+,80,82.5,85,85,45,50,55,55,110,112.5,115,115,255,SBD,1977-11-10
1,Mia Milošević,F,Raw,SJ,55.6,57,80,85,-87.5,85,42.5,45,-47.5,45,82.5,87.5,92.5,92.5,222.5,SBD,2007-01-23
2,Marija Antic,F,Raw,SJ,56.9,57,60,65.5,-70,65.5,35,-37.5,37.5,37.5,100,-105,,100,203,SBD,2005-07-10
1,Dusica Cvetkovic,F,Raw,SJ,67.5,69,-87.5,92.5,-100,92.5,35,-37.5,-40,35,95,102.5,107.5,107.5,235,SBD,2005-05-31
1,Pavlovic Nina,F,Raw,SJ,75.1,76,-100,-100,100,100,47.5,50,-52.5,50,100,107.5,112.5,112.5,262.5,SBD,2005-07-23
1,Elena Mijatović,F,Raw,SJ,78,84,120,130,-135,130,75,80,-82.5,80,140,150,155,155,365,SBD,2004-02-19
2,Milijana Mitrovic,F,Raw,SJ,82.6,84,80,-87.5,-90,80,45,50,-55,50,115,120,122.5,122.5,252.5,SBD,2004-12-05
1,David Radojičić,M,Raw,J,58.2,59,90,100,-105,100,80,85,-87.5,85,110,120,130,130,315,SBD,2003-06-27
1,Djordje Stojiljkovic,M,Raw,J,64.6,66,175,185,-190.5,185,100,105,110,110,200,-215.5,-215.5,200,495,SBD,1999-04-12
2,Nikola Ostojic,M,Raw,J,63,66,100,110,120,120,75,80,-85,80,100,115,130,130,330,SBD,2000-02-05
1,Igor Paunović,M,Raw,J,73.7,74,187.5,200,208,208,137.5,145,150,150,225,240,245,245,603,SBD,1999-03-04
2,Strahinja Garai,M,Raw,J,71.6,74,200,207.5,212.5,212.5,135,-140,-140,135,230,-247.5,,230,577.5,SBD,2001-01-05
3,Sergej Šalić,M,Raw,J,73.3,74,160,-167.5,-170,160,105,-112.5,-112.5,105,220,-230,230,230,495,SBD,2001-07-12
4,Luka Milenković,M,Raw,J,73.8,74,140,155,160,160,95,102.5,-107.5,102.5,190,210,-215,210,472.5,SBD,2003-07-21
DQ,Mihajlo Mandusic,M,Raw,J,73.3,74,155,165,-170,165,-105,-105,-105,,190,200,-205,200,,SBD,2003-01-10
1,Veljko Petrović,M,Raw,J,78.8,83,180,190,200,200,120,127.5,132.5,132.5,230,-245,245,245,577.5,SBD,2000-06-17
2,David Pejčić,M,Raw,J,82.2,83,170,180,190,190,125,130,135,135,195,210,220,220,545,SBD,2000-07-23
3,Luka Spasic,M,Raw,J,79.5,83,160,170,-180,170,132.5,-142.5,142.5,142.5,200,215,-232.5,215,527.5,SBD,1999-09-14
4,Veljko Bucan,M,Raw,J,81.5,83,155,165,180,180,107.5,112.5,-117.5,112.5,185,200,212.5,212.5,505,SBD,2003-12-08
5,Petar Trninić,M,Raw,J,82.6,83,175,187.5,-195,187.5,115,122.5,-127.5,122.5,180,195,-202.5,195,505,SBD,2001-08-09
6,Aleksa Grobin,M,Raw,J,82.4,83,125,127.5,130,130,-97.5,97.5,-100,97.5,137.5,140,-145,140,367.5,SBD,2002-04-11
7,Dušan Lilić,M,Raw,J,77.9,83,100,-130,-130,100,-100,-100,100,100,130,140,150,150,350,SBD,
8,Aleksa Pantic,M,Raw,J,79.7,83,-100,105,115,115,70,77.5,82.5,82.5,120,130,140,140,337.5,SBD,2003-03-06
DQ,Mihajlo Spasić,M,Raw,J,81.1,83,-170,-170,-170,,-105,-105,,,175,192.5,200,200,,SBD,2000-06-29
1,Igor Babić,M,Raw,J,92.8,93,-200,205,-212.5,205,110,117.5,120,120,230,240,-250,240,565,SBD,2000-05-31
2,Aleksa Jovanović,M,Raw,J,91.6,93,190,-202.5,202.5,202.5,-112.5,115,-120,115,200,212.5,222.5,222.5,540,SBD,1999-03-16
3,Viktor Fos,M,Raw,J,91.9,93,170,180,192.5,192.5,110,-120,125,125,200,215,222.5,222.5,540,SBD,2002-11-26
4,Nemanja Djeric,M,Raw,J,89.4,93,175,180,-185,180,130,-135,-135,130,215,225,-230,225,535,SBD,2003-11-27
5,Marko Vulić,M,Raw,J,92.2,93,170,180,190,190,120,127.5,132.5,132.5,195,207.5,-220,207.5,530,SBD,2001-02-18
6,Janko Svetlik,M,Raw,J,85.6,93,135,-150,-165,135,90,97.5,-107.5,97.5,220,240,-250,240,472.5,SBD,2003-08-15
7,Aleksandar Živković,M,Raw,J,93,93,140,150,160,160,115,122.5,-125,122.5,180,190,,190,472.5,SBD,2000-02-16
8,Kristijan Šaponjić,M,Raw,J,90.8,93,140,150,160,160,100,107.5,-112.5,107.5,160,170,-175,170,437.5,SBD,2001-08-10
1,Marko Lazić,M,Raw,J,102.3,105,185,200,205,205,125,132.5,135,135,230,250,267.5,267.5,607.5,SBD,2003-09-08
2,Haris Suljovic,M,Raw,J,103.1,105,-200,-207.5,207.5,207.5,150,-160,,150,220,250,-260,250,607.5,SBD,1999-10-22
3,Veljko Vesic,M,Raw,J,101.8,105,170,190,-200,190,130,135,,135,220,240,260,260,585,SBD,2002-02-21
4,Milos Sekulovic,M,Raw,J,102,105,200,212.5,222.5,222.5,102.5,112.5,-120,112.5,190,205,217.5,217.5,552.5,SBD,2001-06-16
5,Luka Petkovic,M,Raw,J,98.3,105,145,155,165,165,85,95,-102.5,95,170,185,-200,185,445,SBD,2001-10-26
1,Teodor Takovac,M,Raw,J,105.4,120,220,230,-235,230,180,195,-205.5,195,220,240,260,260,685,SBD,2000-10-02
1,Slobodan Zec,M,Raw,M1,103,105,210,-222.5,-222.5,210,130,140,145,145,-230,240,250,250,605,SBD,1980-01-27
1,Darko Glušac,M,Raw,M1,114.3,120,160,180,,180,160,-170,,160,230,250,-265,250,590,SBD,1975-09-15
1,Sava Vasiljevski,M,Raw,M4,91.5,93,140,160,,160,75,80,,80,170,190,,190,430,SBD,1950-05-22
1,Vidak Jovanović,M,Raw,SJ,64.8,66,-142.5,142.5,,142.5,85,-90,-90,85,165,175,180,180,407.5,SBD,2005-05-04
2,Luka Spasic,M,Raw,SJ,61.8,66,80,-90,92.5,92.5,70,77.5,82.5,82.5,140,160,167.5,167.5,342.5,SBD,2005-09-07
3,Milos Pavlica,M,Raw,SJ,66,66,87.5,95,100,100,70,75,80,80,135,145,157.5,157.5,337.5,SBD,2005-05-04
4,Petar Matejic,M,Raw,SJ,64.9,66,50,55,,55,-50,-60,60,60,70,,,70,185,SBD,
1,Filip Maunić,M,Raw,SJ,74,74,155,162.5,-167.5,162.5,92.5,97.5,102.5,102.5,150,160,-170,160,425,SBD,2007-01-03
2,Vuk Andjelic,M,Raw,SJ,74,74,87.5,95,-100,95,80,-85,-90,80,135,145,155,155,330,SBD,2005-08-26
DQ,Darko Markovic,M,Raw,SJ,,74,-120,,,,,,,,-140,,,,,SBD,2004-11-10
1,Bogdan Djordjević,M,Raw,SJ,81.4,83,-100,100,115,115,90,100,102.5,102.5,130,150,165,165,382.5,SBD,2007-02-26
2,Petar Glušac,M,Raw,SJ,82.4,83,115,120,130,130,95,-97.5,97.5,97.5,130,140,-155,140,367.5,SBD,2006-06-16
1,Uros Stanimirovic,M,Raw,SJ,90,93,160,-172.5,172.5,172.5,110,-115,115,115,180,200,-210,200,487.5,SBD,2006-03-29
2,Mitar Stojanovic,M,Raw,SJ,90.7,93,150,160,,160,100,105,110,110,170,180,190,190,460,SBD,2004-03-04
3,Filip Filipovic,M,Raw,SJ,91.5,93,145,155,165,165,75,-80,80,80,155,165,180,180,425,SBD,2004-06-21
1,Lazar Kandić,M,Raw,SJ,99.8,105,185,200,215,215,130,142.5,,142.5,215,236,250,250,607.5,SBD,2004-06-10
2,Denis Grbovic,M,Raw,SJ,99.9,105,-185,190,205,205,90,100,-110,100,190,200,205,205,510,SBD,2006-05-23
3,Mihajlo Kostic,M,Raw,SJ,103.2,105,-130,140,150,150,110,115,-117.5,115,220,-235,-240,220,485,SBD,2004-02-23
1,Veljko Savic,M,Raw,SJ,105.2,120,170,-185,191,191,110,115,120,120,200,211,-225,211,522,SBD,2004-03-16
